^C:\USERS\COM\DESKTOP\FUCKING_BILL_GATES_PROJECT-MASTER\FUCKING_BILL_GATES_PROJECT-MASTER\SMART_FMMS\SMART_FMMS\DEBUG\CLOSUREEQUIPMENTINFO.OBJ|C:\USERS\COM\DESKTOP\FUCKING_BILL_GATES_PROJECT-MASTER\FUCKING_BILL_GATES_PROJECT-MASTER\SMART_FMMS\SMART_FMMS\DEBUG\CLOSUREEQUIPMENTINFODLG.OBJ|C:\USERS\COM\DESKTOP\FUCKING_BILL_GATES_PROJECT-MASTER\FUCKING_BILL_GATES_PROJECT-MASTER\SMART_FMMS\SMART_FMMS\DEBUG\CLOSUREINFO.OBJ|C:\USERS\COM\DESKTOP\FUCKING_BILL_GATES_PROJECT-MASTER\FUCKING_BILL_GATES_PROJECT-MASTER\SMART_FMMS\SMART_FMMS\DEBUG\CLOSURESTATE.OBJ|C:\USERS\COM\DESKTOP\FUCKING_BILL_GATES_PROJECT-MASTER\FUCKING_BILL_GATES_PROJECT-MASTER\SMART_FMMS\SMART_FMMS\DEBUG\CLOSURESTATEDLG.OBJ|C:\USERS\COM\DESKTOP\FUCKING_BILL_GATES_PROJECT-MASTER\FUCKING_BILL_GATES_PROJECT-MASTER\SMART_FMMS\SMART_FMMS\DEBUG\ENTERLOG.OBJ|C:\USERS\COM\DESKTOP\FUCKING_BILL_GATES_PROJECT-MASTER\FUCKING_BILL_GATES_PROJECT-MASTER\SMART_FMMS\SMART_FMMS\DEBUG\ENTERLOGDLG.OBJ|C:\USERS\COM\DESKTOP\FUCKING_BILL_GATES_PROJECT-MASTER\FUCKING_BILL_GATES_PROJECT-MASTER\SMART_FMMS\SMART_FMMS\DEBUG\EVENTLOG.OBJ|C:\USERS\COM\DESKTOP\FUCKING_BILL_GATES_PROJECT-MASTER\FUCKING_BILL_GATES_PROJECT-MASTER\SMART_FMMS\SMART_FMMS\DEBUG\EVENTLOGDLG.OBJ|C:\USERS\COM\DESKTOP\FUCKING_BILL_GATES_PROJECT-MASTER\FUCKING_BILL_GATES_PROJECT-MASTER\SMART_FMMS\SMART_FMMS\DEBUG\INSTALLEDEQUIPMENTINFO.OBJ|C:\USERS\COM\DESKTOP\FUCKING_BILL_GATES_PROJECT-MASTER\FUCKING_BILL_GATES_PROJECT-MASTER\SMART_FMMS\SMART_FMMS\DEBUG\INSTALLEDEQUIPMENTINFODLG.OBJ|C:\USERS\COM\DESKTOP\FUCKING_BILL_GATES_PROJECT-MASTER\FUCKING_BILL_GATES_PROJECT-MASTER\SMART_FMMS\SMART_FMMS\DEBUG\MAINFRM.OBJ|C:\USERS\COM\DESKTOP\FUCKING_BILL_GATES_PROJECT-MASTER\FUCKING_BILL_GATES_PROJECT-MASTER\SMART_FMMS\SMART_FMMS\DEBUG\SMART_FMMS.OBJ|C:\USERS\COM\DESKTOP\FUCKING_BILL_GATES_PROJECT-MASTER\FUCKING_BILL_GATES_PROJECT-MASTER\SMART_FMMS\SMART_FMMS\DEBUG\SMART_FMMS.RES|C:\USERS\COM\DESKTOP\FUCKING_BILL_GATES_PROJECT-MASTER\FUCKING_BILL_GATES_PROJECT-MASTER\SMART_FMMS\SMART_FMMS\DEBUG\SMART_FMMSDOC.OBJ|C:\USERS\COM\DESKTOP\FUCKING_BILL_GATES_PROJECT-MASTER\FUCKING_BILL_GATES_PROJECT-MASTER\SMART_FMMS\SMART_FMMS\DEBUG\SMART_FMMSVIEW.OBJ|C:\USERS\COM\DESKTOP\FUCKING_BILL_GATES_PROJECT-MASTER\FUCKING_BILL_GATES_PROJECT-MASTER\SMART_FMMS\SMART_FMMS\DEBUG\STDAFX.OBJ
C:\WINDOWS\GLOBALIZATION\SORTING\SORTDEFAULT.NLS
C:\PROGRAM FILES (X86)\WINDOWS KITS\8.1\LIB\WINV6.3\UM\X86\ODBC32.LIB
C:\USERS\COM\DESKTOP\FUCKING_BILL_GATES_PROJECT-MASTER\FUCKING_BILL_GATES_PROJECT-MASTER\SMART_FMMS\SMART_FMMS\DEBUG\SMART_FMMS.RES
C:\USERS\COM\DESKTOP\FUCKING_BILL_GATES_PROJECT-MASTER\FUCKING_BILL_GATES_PROJECT-MASTER\SMART_FMMS\SMART_FMMS\DEBUG\CLOSUREEQUIPMENTINFO.OBJ
C:\USERS\COM\DESKTOP\FUCKING_BILL_GATES_PROJECT-MASTER\FUCKING_BILL_GATES_PROJECT-MASTER\SMART_FMMS\SMART_FMMS\DEBUG\CLOSUREEQUIPMENTINFODLG.OBJ
C:\USERS\COM\DESKTOP\FUCKING_BILL_GATES_PROJECT-MASTER\FUCKING_BILL_GATES_PROJECT-MASTER\SMART_FMMS\SMART_FMMS\DEBUG\CLOSURESTATE.OBJ
C:\USERS\COM\DESKTOP\FUCKING_BILL_GATES_PROJECT-MASTER\FUCKING_BILL_GATES_PROJECT-MASTER\SMART_FMMS\SMART_FMMS\DEBUG\ENTERLOG.OBJ
C:\USERS\COM\DESKTOP\FUCKING_BILL_GATES_PROJECT-MASTER\FUCKING_BILL_GATES_PROJECT-MASTER\SMART_FMMS\SMART_FMMS\DEBUG\ENTERLOGDLG.OBJ
C:\USERS\COM\DESKTOP\FUCKING_BILL_GATES_PROJECT-MASTER\FUCKING_BILL_GATES_PROJECT-MASTER\SMART_FMMS\SMART_FMMS\DEBUG\EVENTLOG.OBJ
C:\USERS\COM\DESKTOP\FUCKING_BILL_GATES_PROJECT-MASTER\FUCKING_BILL_GATES_PROJECT-MASTER\SMART_FMMS\SMART_FMMS\DEBUG\EVENTLOGDLG.OBJ
C:\USERS\COM\DESKTOP\FUCKING_BILL_GATES_PROJECT-MASTER\FUCKING_BILL_GATES_PROJECT-MASTER\SMART_FMMS\SMART_FMMS\DEBUG\INSTALLEDEQUIPMENTINFO.OBJ
C:\USERS\COM\DESKTOP\FUCKING_BILL_GATES_PROJECT-MASTER\FUCKING_BILL_GATES_PROJECT-MASTER\SMART_FMMS\SMART_FMMS\DEBUG\INSTALLEDEQUIPMENTINFODLG.OBJ
C:\USERS\COM\DESKTOP\FUCKING_BILL_GATES_PROJECT-MASTER\FUCKING_BILL_GATES_PROJECT-MASTER\SMART_FMMS\SMART_FMMS\DEBUG\MAINFRM.OBJ
C:\USERS\COM\DESKTOP\FUCKING_BILL_GATES_PROJECT-MASTER\FUCKING_BILL_GATES_PROJECT-MASTER\SMART_FMMS\SMART_FMMS\DEBUG\SMART_FMMS.OBJ
C:\USERS\COM\DESKTOP\FUCKING_BILL_GATES_PROJECT-MASTER\FUCKING_BILL_GATES_PROJECT-MASTER\SMART_FMMS\SMART_FMMS\DEBUG\SMART_FMMSDOC.OBJ
C:\USERS\COM\DESKTOP\FUCKING_BILL_GATES_PROJECT-MASTER\FUCKING_BILL_GATES_PROJECT-MASTER\SMART_FMMS\SMART_FMMS\DEBUG\CLOSUREINFO.OBJ
C:\USERS\COM\DESKTOP\FUCKING_BILL_GATES_PROJECT-MASTER\FUCKING_BILL_GATES_PROJECT-MASTER\SMART_FMMS\SMART_FMMS\DEBUG\SMART_FMMSVIEW.OBJ
C:\USERS\COM\DESKTOP\FUCKING_BILL_GATES_PROJECT-MASTER\FUCKING_BILL_GATES_PROJECT-MASTER\SMART_FMMS\SMART_FMMS\DEBUG\CLOSURESTATEDLG.OBJ
C:\USERS\COM\DESKTOP\FUCKING_BILL_GATES_PROJECT-MASTER\FUCKING_BILL_GATES_PROJECT-MASTER\SMART_FMMS\SMART_FMMS\DEBUG\STDAFX.OBJ
C:\WINDOWS\SYSTEM32\TZRES.DLL
C:\PROGRAM FILES (X86)\MICROSOFT VISUAL STUDIO 14.0\VC\INCLUDE\MANIFEST\DPIAWARE.MANIFEST
C:\PROGRAM FILES (X86)\MICROSOFT VISUAL STUDIO 14.0\VC\ATLMFC\LIB\MFC140UD.LIB
C:\PROGRAM FILES (X86)\MICROSOFT VISUAL STUDIO 14.0\VC\ATLMFC\LIB\MFCS140UD.LIB
C:\PROGRAM FILES (X86)\MICROSOFT VISUAL STUDIO 14.0\VC\LIB\MSVCRTD.LIB
C:\PROGRAM FILES (X86)\WINDOWS KITS\8.1\LIB\WINV6.3\UM\X86\KERNEL32.LIB
C:\PROGRAM FILES (X86)\WINDOWS KITS\8.1\LIB\WINV6.3\UM\X86\USER32.LIB
C:\PROGRAM FILES (X86)\WINDOWS KITS\8.1\LIB\WINV6.3\UM\X86\GDI32.LIB
C:\PROGRAM FILES (X86)\WINDOWS KITS\8.1\LIB\WINV6.3\UM\X86\MSIMG32.LIB
C:\PROGRAM FILES (X86)\WINDOWS KITS\8.1\LIB\WINV6.3\UM\X86\COMDLG32.LIB
C:\PROGRAM FILES (X86)\WINDOWS KITS\8.1\LIB\WINV6.3\UM\X86\WINSPOOL.LIB
C:\PROGRAM FILES (X86)\WINDOWS KITS\8.1\LIB\WINV6.3\UM\X86\ADVAPI32.LIB
C:\PROGRAM FILES (X86)\WINDOWS KITS\8.1\LIB\WINV6.3\UM\X86\SHELL32.LIB
C:\PROGRAM FILES (X86)\WINDOWS KITS\8.1\LIB\WINV6.3\UM\X86\COMCTL32.LIB
C:\PROGRAM FILES (X86)\WINDOWS KITS\8.1\LIB\WINV6.3\UM\X86\SHLWAPI.LIB
C:\PROGRAM FILES (X86)\WINDOWS KITS\8.1\LIB\WINV6.3\UM\X86\UXTHEME.LIB
C:\PROGRAM FILES (X86)\WINDOWS KITS\8.1\LIB\WINV6.3\UM\X86\WINDOWSCODECS.LIB
C:\PROGRAM FILES (X86)\WINDOWS KITS\8.1\LIB\WINV6.3\UM\X86\UUID.LIB
C:\PROGRAM FILES (X86)\MICROSOFT VISUAL STUDIO 14.0\VC\ATLMFC\LIB\ATLS.LIB
C:\PROGRAM FILES (X86)\WINDOWS KITS\8.1\LIB\WINV6.3\UM\X86\OLE32.LIB
C:\PROGRAM FILES (X86)\WINDOWS KITS\8.1\LIB\WINV6.3\UM\X86\OLEAUT32.LIB
C:\PROGRAM FILES (X86)\WINDOWS KITS\8.1\LIB\WINV6.3\UM\X86\OLEDLG.LIB
C:\PROGRAM FILES (X86)\WINDOWS KITS\8.1\LIB\WINV6.3\UM\X86\URLMON.LIB
C:\PROGRAM FILES (X86)\WINDOWS KITS\8.1\LIB\WINV6.3\UM\X86\GDIPLUS.LIB
C:\PROGRAM FILES (X86)\MICROSOFT VISUAL STUDIO 14.0\VC\LIB\COMSUPPWD.LIB
C:\PROGRAM FILES (X86)\WINDOWS KITS\8.1\LIB\WINV6.3\UM\X86\WS2_32.LIB
C:\PROGRAM FILES (X86)\WINDOWS KITS\8.1\LIB\WINV6.3\UM\X86\MSWSOCK.LIB
C:\PROGRAM FILES (X86)\WINDOWS KITS\8.1\LIB\WINV6.3\UM\X86\WSOCK32.LIB
C:\PROGRAM FILES (X86)\WINDOWS KITS\8.1\LIB\WINV6.3\UM\X86\ODBCCP32.LIB
C:\PROGRAM FILES (X86)\WINDOWS KITS\8.1\LIB\WINV6.3\UM\X86\CRYPT32.LIB
C:\PROGRAM FILES (X86)\MICROSOFT VISUAL STUDIO 14.0\VC\LIB\OLDNAMES.LIB
C:\PROGRAM FILES (X86)\WINDOWS KITS\8.1\LIB\WINV6.3\UM\X86\WININET.LIB
C:\PROGRAM FILES (X86)\MICROSOFT VISUAL STUDIO 14.0\VC\LIB\VCRUNTIMED.LIB
C:\PROGRAM FILES (X86)\WINDOWS KITS\10\LIB\10.0.10150.0\UCRT\X86\UCRTD.LIB
C:\PROGRAM FILES (X86)\WINDOWS KITS\8.1\BIN\X86\MT.EXE
C:\PROGRAM FILES (X86)\WINDOWS KITS\8.1\BIN\X86\RC.EXE
C:\PROGRAM FILES (X86)\MICROSOFT VISUAL STUDIO 14.0\VC\BIN\CVTRES.EXE
